Case Study 1 - Beer and Breweries
…
## [1] 0.4634843

cor(beer_df_cleaned$ABV.log, beer_df_cleaned$IBU)

## [1] 0.4873105

Analysis #8

Difference of IBU and ABV between IPAs and other Ales?

# goal here is to use kNN to classify if a beer is Ale/IPA/Other based on it's ABV and IBU
# viewing all types of beer styles
beer_df_cleaned %>% group_by(Style) %>% select(Style)

## # A tibble: 2,410 x 1
## # Groups:   Style [100]
##    Style                              
##    <chr>                              
##  1 American IPA                       
##  2 Milk / Sweet Stout                 
##  3 English Brown Ale                  
##  4 Pumpkin Ale                        
##  5 American Porter                    
##  6 Extra Special / Strong Bitter (ESB)
##  7 American Double / Imperial IPA     
##  8 English Barleywine                 
##  9 Milk / Sweet Stout                 
## 10 American Pale Ale (APA)            
## # ... with 2,400 more rows
…
